{ "height":13,
 "infinite":false,
 "layers":[
        {
         "data":[0, 4, 5, 5, 5, 5, 5, 5, 5, 5, 5, 5, 5, 5, 5, 5, 5, 5, 5, 5, 5, 5, 5, 6, 0, 0, 13, 0, 0, 0, 0, 0, 0, 0, 0, 0, 0, 0, 0, 0, 0, 0, 0, 0, 0, 0, 0, 0, 15, 0, 0, 13, 0, 1, 20, 20, 20, 20, 20, 20, 20, 3, 0, 1, 20, 20, 20, 20, 20, 20, 20, 3, 0, 15, 0, 0, 13, 0, 10, 0, 0, 0, 0, 0, 0, 31, 21, 0, 19, 51, 0, 0, 0, 0, 0, 0, 12, 0, 15, 0, 0, 13, 0, 10, 0, 1, 51, 0, 33, 0, 0, 0, 0, 0, 0, 0, 33, 0, 31, 3, 0, 12, 0, 15, 0, 28, 24, 0, 49, 0, 49, 0, 0, 12, 0, 7, 26, 0, 26, 9, 0, 12, 0, 0, 49, 0, 49, 0, 22, 48, 0, 0, 0, 0, 0, 0, 0, 31, 42, 0, 16, 0, 0, 0, 16, 0, 40, 51, 0, 0, 0, 0, 0, 0, 0, 28, 6, 0, 33, 0, 33, 0, 0, 12, 0, 25, 26, 26, 26, 27, 0, 12, 0, 0, 33, 0, 33, 0, 4, 48, 0, 13, 0, 10, 0, 19, 51, 0, 49, 0, 0, 0, 0, 0, 0, 0, 49, 0, 31, 21, 0, 12, 0, 15, 0, 0, 13, 0, 10, 0, 0, 0, 0, 0, 0, 31, 3, 0, 1, 51, 0, 0, 0, 0, 0, 0, 12, 0, 15, 0, 0, 13, 0, 19, 20, 20, 20, 20, 20, 20, 20, 21, 0, 19, 20, 20, 20, 20, 20, 20, 20, 21, 0, 15, 0, 0, 13, 0, 0, 0, 0, 0, 0, 0, 0, 0, 0, 0, 0, 0, 0, 0, 0, 0, 0, 0, 0, 0, 15, 0, 0, 22, 5, 5, 5, 5, 5, 5, 5, 5, 5, 5, 5, 5, 5, 5, 5, 5, 5, 5, 5, 5, 5, 24, 0],
         "height":13,
         "name":"maze",
         "opacity":1,
         "type":"tilelayer",
         "visible":true,
         "width":25,
         "x":0,
         "y":0
        }, 
        {
         "data":[0, 0, 0, 0, 0, 0, 0, 0, 0, 0, 0, 0, 0, 0, 0, 0, 0, 0, 0, 0, 0, 0, 0, 0, 0, 0, 0, 449, 0, 0, 0, 0, 0, 0, 0, 0, 0, 0, 0, 0, 0, 0, 0, 0, 0, 0, 0, 0, 0, 0, 0, 0, 0, 0, 0, 0, 0, 0, 0, 0, 0, 0, 0, 0, 0, 0, 0, 0, 0, 0, 0, 0, 0, 0, 0, 0, 0, 0, 0, 0, 0, 0, 0, 0, 0, 0, 0, 0, 0, 0, 0, 0, 0, 0, 0, 0, 0, 0, 0, 0, 0, 0, 0, 0, 0, 0, 0, 0, 0, 0, 0, 0, 0, 0, 0, 0, 0, 0, 0, 0, 0, 0, 0, 0, 0, 0, 0, 0, 0, 0, 0, 0, 0, 0, 0, 0, 0, 0, 0, 0, 0, 0, 0, 0, 0, 0, 0, 0, 0, 0, 0, 0, 0, 0, 0, 0, 0, 0, 0, 0, 0, 0, 0, 0, 0, 0, 0, 0, 0, 0, 0, 0, 0, 0, 0, 0, 0, 0, 0, 0, 0, 0, 0, 0, 0, 0, 0, 0, 0, 0, 0, 0, 0, 0, 0, 0, 0, 0, 0, 0, 0, 0, 0, 0, 0, 0, 0, 0, 0, 0, 0, 0, 0, 0, 0, 0, 0, 0, 0, 0, 0, 0, 0, 0, 0, 0, 0, 0, 0, 0, 0, 0, 0, 0, 0, 0, 0, 0, 0, 0, 0, 0, 0, 0, 0, 0, 0, 0, 0, 0, 0, 0, 0, 0, 0, 0, 0, 0, 0, 0, 0, 0, 0, 0, 0, 0, 0, 0, 0, 0, 0, 0, 0, 0, 0, 0, 0, 0, 0, 0, 0, 0, 0, 0, 0, 0, 0, 0, 0, 0, 0, 0, 0, 0, 0, 0, 0, 0, 0, 0, 0, 0, 0, 0, 0, 0, 0, 0, 0, 0, 0, 0, 0, 0, 0, 0, 0, 0, 0, 0, 0, 0, 0, 0, 0],
         "height":13,
         "name":"unique_spawn",
         "opacity":1,
         "type":"tilelayer",
         "visible":true,
         "width":25,
         "x":0,
         "y":0
        }, 
        {
         "data":[0, 0, 0, 0, 0, 0, 0, 0, 0, 0, 0, 0, 0, 0, 0, 0, 0, 0, 0, 0, 0, 0, 0, 0, 0, 0, 0, 159, 158, 158, 158, 158, 158, 158, 158, 158, 158, 158, 158, 158, 158, 158, 158, 158, 158, 158, 158, 159, 0, 0, 0, 0, 158, 0, 0, 0, 0, 0, 0, 0, 0, 0, 158, 0, 0, 0, 0, 0, 0, 0, 0, 0, 158, 0, 0, 0, 0, 158, 0, 158, 158, 158, 158, 158, 158, 0, 0, 158, 0, 0, 158, 158, 158, 158, 158, 158, 0, 158, 0, 0, 0, 0, 158, 0, 158, 0, 0, 158, 0, 158, 158, 158, 158, 158, 158, 158, 0, 158, 0, 0, 158, 0, 158, 0, 0, 0, 0, 158, 0, 158, 0, 158, 158, 0, 158, 0, 0, 0, 0, 0, 158, 0, 158, 158, 0, 158, 0, 158, 0, 0, 0, 0, 158, 158, 158, 158, 158, 0, 0, 158, 0, 0, 0, 0, 0, 158, 0, 0, 158, 158, 158, 158, 158, 0, 0, 0, 0, 158, 0, 158, 0, 158, 158, 0, 158, 0, 0, 0, 0, 0, 158, 0, 158, 158, 0, 158, 0, 158, 0, 0, 0, 0, 158, 0, 158, 0, 0, 158, 0, 158, 158, 158, 158, 158, 158, 158, 0, 158, 0, 0, 158, 0, 158, 0, 0, 0, 0, 158, 0, 158, 158, 158, 158, 158, 158, 0, 0, 0, 0, 0, 158, 158, 158, 158, 158, 158, 0, 158, 0, 0, 0, 0, 158, 0, 0, 0, 0, 0, 0, 0, 0, 0, 0, 0, 0, 0, 0, 0, 0, 0, 0, 0, 158, 0, 0, 0, 0, 159, 158, 158, 158, 158, 158, 158, 158, 158, 158, 158, 158, 158, 158, 158, 158, 158, 158, 158, 158, 159, 0, 0, 0, 0, 0, 0, 0, 0, 0, 0, 0, 0, 0, 0, 0, 0, 0, 0, 0, 0, 0, 0, 0, 0, 0, 0, 0],
         "height":13,
         "name":"cookies",
         "opacity":1,
         "type":"tilelayer",
         "visible":true,
         "width":25,
         "x":0,
         "y":0
        }],
 "nextobjectid":1,
 "orientation":"orthogonal",
 "renderorder":"right-down",
 "tiledversion":"1.1.6",
 "tileheight":50,
 "tilesets":[
        {
         "firstgid":1,
         "source":"maptile.json"
        }, 
        {
         "firstgid":55,
         "source":"Pac-Man Neon.json"
        }, 
        {
         "firstgid":416,
         "source":"map2.json"
        }],
 "tilewidth":50,
 "type":"map",
 "version":1,
 "width":25
}