{ "height":15,
 "infinite":false,
 "layers":[
        {
         "data":[4, 5, 5, 5, 5, 5, 5, 29, 5, 5, 5, 5, 5, 5, 6, 0, 0, 0, 13, 0, 0, 0, 0, 0, 0, 13, 0, 0, 0, 0, 0, 0, 13, 0, 0, 0, 13, 0, 31, 20, 32, 51, 0, 46, 0, 31, 32, 20, 51, 0, 13, 0, 0, 0, 13, 0, 0, 0, 10, 0, 0, 0, 0, 0, 12, 0, 0, 0, 13, 0, 0, 0, 13, 0, 33, 0, 49, 0, 31, 20, 51, 0, 49, 0, 33, 0, 13, 0, 0, 0, 13, 0, 49, 0, 0, 0, 0, 0, 0, 0, 0, 0, 49, 0, 13, 0, 0, 0, 13, 0, 0, 0, 33, 0, 7, 0, 9, 0, 33, 0, 0, 0, 13, 0, 0, 0, 37, 23, 48, 0, 12, 0, 16, 0, 16, 0, 12, 0, 28, 23, 39, 0, 0, 0, 13, 0, 0, 0, 49, 0, 25, 26, 27, 0, 49, 0, 0, 0, 13, 0, 0, 0, 13, 0, 33, 0, 0, 0, 0, 0, 0, 0, 0, 0, 33, 0, 13, 0, 0, 0, 13, 0, 49, 0, 33, 0, 31, 2, 51, 0, 33, 0, 49, 0, 13, 0, 0, 0, 13, 0, 0, 0, 12, 0, 0, 0, 0, 0, 12, 0, 0, 0, 13, 0, 0, 0, 13, 0, 31, 20, 50, 51, 0, 30, 0, 31, 50, 20, 51, 0, 13, 0, 0, 0, 13, 0, 0, 0, 0, 0, 0, 13, 0, 0, 0, 0, 0, 0, 13, 0, 0, 0, 22, 23, 23, 23, 23, 23, 23, 47, 23, 23, 23, 23, 23, 23, 24, 0, 0, 0],
         "height":15,
         "name":"maze",
         "opacity":1,
         "type":"tilelayer",
         "visible":true,
         "width":18,
         "x":0,
         "y":0
        }, 
        {
         "data":[0, 0, 0, 0, 0, 0, 0, 0, 0, 0, 0, 0, 0, 0, 0, 0, 0, 0, 0, 0, 0, 0, 0, 0, 0, 0, 0, 0, 0, 0, 0, 0, 0, 0, 0, 0, 0, 0, 0, 0, 0, 0, 0, 0, 0, 0, 0, 0, 0, 0, 0, 0, 0, 0, 0, 0, 0, 0, 0, 0, 0, 0, 0, 0, 0, 0, 0, 0, 0, 0, 0, 0, 0, 0, 0, 0, 0, 0, 0, 0, 0, 0, 0, 0, 0, 0, 0, 0, 0, 0, 0, 0, 0, 0, 0, 0, 0, 0, 0, 0, 0, 0, 0, 0, 0, 0, 0, 0, 0, 0, 0, 0, 0, 0, 0, 0, 0, 0, 0, 0, 0, 0, 0, 0, 0, 0, 0, 0, 0, 0, 0, 0, 0, 34, 0, 0, 0, 0, 0, 0, 0, 0, 0, 0, 0, 0, 0, 0, 0, 0, 0, 0, 0, 0, 0, 0, 0, 0, 0, 0, 0, 0, 0, 0, 0, 0, 0, 0, 0, 0, 0, 0, 0, 0, 0, 0, 0, 0, 0, 0, 0, 0, 0, 0, 0, 0, 0, 0, 0, 0, 0, 0, 0, 0, 0, 0, 0, 0, 0, 0, 0, 0, 0, 0, 0, 0, 0, 0, 0, 0, 0, 0, 0, 0, 0, 0, 0, 0, 0, 0, 0, 0, 0, 0, 0, 0, 0, 0, 0, 0, 0, 0, 0, 0, 0, 0, 0, 0, 0, 0, 0, 0, 0, 0, 0, 0, 0, 0, 0, 0, 0, 0, 0, 0, 0, 0, 0, 0, 0, 0, 0, 0, 0, 0, 0, 0, 0, 0, 0, 0],
         "height":15,
         "name":"unique_spawn",
         "opacity":1,
         "type":"tilelayer",
         "visible":true,
         "width":18,
         "x":0,
         "y":0
        }, 
        {
         "data":[0, 0, 0, 0, 0, 0, 0, 0, 0, 0, 0, 0, 0, 0, 0, 0, 0, 0, 0, 0, 158, 158, 158, 158, 158, 0, 158, 158, 158, 158, 158, 0, 0, 0, 0, 0, 0, 158, 0, 0, 0, 0, 158, 0, 158, 0, 0, 0, 0, 158, 0, 0, 0, 0, 0, 158, 158, 158, 0, 158, 158, 158, 158, 158, 0, 158, 158, 158, 0, 0, 0, 0, 0, 158, 0, 158, 0, 158, 0, 0, 0, 158, 0, 158, 0, 158, 0, 0, 0, 0, 0, 158, 0, 158, 158, 158, 158, 158, 158, 158, 158, 158, 0, 158, 0, 0, 0, 0, 0, 158, 158, 158, 0, 158, 0, 0, 0, 158, 0, 158, 158, 158, 0, 0, 0, 0, 0, 0, 0, 158, 0, 158, 0, 0, 0, 158, 0, 158, 0, 0, 0, 0, 0, 0, 0, 158, 158, 158, 0, 158, 0, 0, 0, 158, 0, 158, 158, 158, 0, 0, 0, 0, 0, 158, 0, 158, 158, 158, 158, 158, 158, 158, 158, 158, 0, 158, 0, 0, 0, 0, 0, 158, 0, 158, 0, 158, 0, 0, 0, 158, 0, 158, 0, 158, 0, 0, 0, 0, 0, 158, 158, 158, 0, 158, 158, 158, 158, 158, 0, 158, 158, 158, 0, 0, 0, 0, 0, 158, 0, 0, 0, 0, 158, 0, 158, 0, 0, 0, 0, 158, 0, 0, 0, 0, 0, 0, 158, 158, 158, 158, 158, 0, 158, 158, 158, 158, 158, 0, 0, 0, 0, 0, 0, 0, 0, 0, 0, 0, 0, 0, 0, 0, 0, 0, 0, 0, 0, 0, 0, 0],
         "height":15,
         "name":"cookies",
         "opacity":1,
         "type":"tilelayer",
         "visible":true,
         "width":18,
         "x":0,
         "y":0
        }, 
        {
         "data":[0, 0, 0, 0, 0, 0, 0, 0, 0, 0, 0, 0, 0, 0, 0, 0, 0, 0, 0, 159, 0, 0, 0, 0, 0, 0, 0, 0, 0, 0, 0, 159, 0, 0, 0, 0, 0, 0, 0, 0, 0, 0, 0, 0, 0, 0, 0, 0, 0, 0, 0, 0, 0, 0, 0, 0, 0, 0, 0, 0, 0, 0, 0, 0, 0, 0, 0, 0, 0, 0, 0, 0, 0, 0, 0, 0, 0, 0, 0, 0, 0, 0, 0, 0, 0, 0, 0, 0, 0, 0, 0, 0, 0, 0, 0, 0, 0, 0, 0, 0, 0, 0, 0, 0, 0, 0, 0, 0, 0, 0, 0, 0, 0, 0, 0, 0, 0, 0, 0, 0, 0, 0, 0, 0, 0, 0, 0, 0, 0, 0, 0, 0, 0, 0, 0, 0, 0, 0, 0, 0, 0, 0, 0, 0, 0, 0, 0, 0, 0, 0, 0, 0, 0, 0, 0, 0, 0, 0, 0, 0, 0, 0, 0, 0, 0, 0, 0, 0, 0, 0, 0, 0, 0, 0, 0, 0, 0, 0, 0, 0, 0, 0, 0, 0, 0, 0, 0, 0, 0, 0, 0, 0, 0, 0, 0, 0, 0, 0, 0, 0, 0, 0, 0, 0, 0, 0, 0, 0, 0, 0, 0, 0, 0, 0, 0, 0, 0, 0, 0, 0, 0, 0, 0, 0, 0, 0, 0, 0, 0, 0, 0, 0, 0, 0, 0, 159, 0, 0, 0, 0, 0, 0, 0, 0, 0, 0, 0, 159, 0, 0, 0, 0, 0, 0, 0, 0, 0, 0, 0, 0, 0, 0, 0, 0, 0, 0, 0, 0, 0, 0],
         "height":15,
         "name":"fruits",
         "opacity":1,
         "type":"tilelayer",
         "visible":true,
         "width":18,
         "x":0,
         "y":0
        }, 
        {
         "data":[0, 0, 0, 0, 0, 0, 0, 0, 0, 0, 0, 0, 0, 0, 0, 0, 245, 0, 0, 0, 0, 0, 0, 0, 0, 0, 0, 0, 0, 0, 0, 0, 0, 0, 0, 0, 0, 0, 0, 0, 0, 0, 0, 0, 0, 0, 0, 0, 0, 0, 0, 0, 0, 0, 0, 0, 0, 0, 0, 0, 0, 0, 0, 0, 0, 0, 0, 0, 0, 0, 0, 0, 0, 0, 0, 0, 0, 0, 0, 0, 0, 0, 0, 0, 0, 0, 0, 0, 0, 0, 0, 0, 0, 0, 0, 0, 0, 0, 0, 0, 0, 0, 0, 0, 0, 0, 0, 0, 0, 0, 0, 0, 0, 0, 0, 0, 0, 0, 0, 0, 0, 0, 0, 0, 0, 0, 0, 0, 0, 0, 0, 0, 0, 0, 0, 0, 0, 0, 0, 0, 0, 0, 0, 0, 0, 0, 0, 0, 0, 0, 0, 0, 0, 0, 0, 0, 0, 0, 0, 0, 0, 0, 0, 0, 0, 0, 0, 0, 0, 0, 0, 0, 0, 0, 0, 0, 0, 0, 0, 0, 0, 0, 0, 0, 0, 0, 0, 0, 0, 0, 0, 0, 0, 0, 0, 0, 0, 0, 0, 0, 0, 0, 0, 0, 0, 0, 0, 0, 0, 0, 0, 0, 0, 0, 0, 0, 0, 0, 0, 0, 0, 0, 0, 0, 0, 0, 0, 0, 0, 0, 0, 0, 0, 0, 0, 0, 0, 0, 0, 0, 0, 0, 0, 0, 0, 0, 0, 0, 0, 0, 0, 0, 0, 0, 0, 0, 0, 0, 0, 0, 0, 0, 0, 0, 0, 0, 0, 0, 0, 0],
         "height":15,
         "name":"scores",
         "opacity":1,
         "type":"tilelayer",
         "visible":true,
         "width":18,
         "x":0,
         "y":0
        }],
 "nextobjectid":1,
 "orientation":"orthogonal",
 "renderorder":"right-down",
 "tiledversion":"1.1.6",
 "tileheight":50,
 "tilesets":[
        {
         "firstgid":1,
         "source":"map2.json"
        }, 
        {
         "firstgid":55,
         "source":"Pac-Man Neon.json"
        }],
 "tilewidth":50,
 "type":"map",
 "version":1,
 "width":18
}