{ "columns":19,
 "image":"..\/Players\/Pac-Man 3D.png",
 "imageheight":950,
 "imagewidth":950,
 "margin":0,
 "name":"Pac-Man Neon",
 "spacing":0,
 "tilecount":361,
 "tileheight":50,
 "tileproperties":
    {
     "103":
        {
         "object":"Cookie"
        }
    },
 "tilepropertytypes":
    {
     "103":
        {
         "object":"string"
        }
    },
 "tilewidth":50,
 "transparentcolor":"#ff00ff",
 "type":"tileset"
}