{ "columns":9,
 "image":"map.png",
 "imageheight":300,
 "imagewidth":450,
 "margin":0,
 "name":"map",
 "spacing":0,
 "tilecount":54,
 "tileheight":50,
 "tileproperties":
    {
     "0":
        {
         "object":"Wall"
        },
     "1":
        {
         "object":"Wall"
        },
     "10":
        {
         "object":"Wall"
        },
     "11":
        {
         "object":"Wall"
        },
     "12":
        {
         "object":"Wall"
        },
     "13":
        {
         "object":"Wall"
        },
     "14":
        {
         "object":"Wall"
        },
     "15":
        {
         "object":"Wall"
        },
     "16":
        {
         "object":"Wall"
        },
     "17":
        {
         "object":"Wall"
        },
     "18":
        {
         "object":"Wall"
        },
     "19":
        {
         "object":"Wall"
        },
     "2":
        {
         "object":"Wall"
        },
     "20":
        {
         "object":"Wall"
        },
     "21":
        {
         "object":"Wall"
        },
     "22":
        {
         "object":"Wall"
        },
     "23":
        {
         "object":"Wall"
        },
     "24":
        {
         "object":"Wall"
        },
     "25":
        {
         "object":"Wall"
        },
     "26":
        {
         "object":"Wall"
        },
     "27":
        {
         "object":"Wall"
        },
     "28":
        {
         "object":"Wall"
        },
     "29":
        {
         "object":"Wall"
        },
     "3":
        {
         "object":"Wall"
        },
     "30":
        {
         "object":"Wall"
        },
     "31":
        {
         "object":"Wall"
        },
     "32":
        {
         "object":"Wall"
        },
     "36":
        {
         "object":"Wall"
        },
     "37":
        {
         "object":"Wall"
        },
     "38":
        {
         "object":"Wall"
        },
     "39":
        {
         "object":"Wall"
        },
     "4":
        {
         "object":"Wall"
        },
     "40":
        {
         "object":"Wall"
        },
     "41":
        {
         "object":"Wall"
        },
     "45":
        {
         "object":"Wall"
        },
     "46":
        {
         "object":"Wall"
        },
     "47":
        {
         "object":"Wall"
        },
     "48":
        {
         "object":"Wall"
        },
     "49":
        {
         "object":"Wall"
        },
     "5":
        {
         "object":"Wall"
        },
     "50":
        {
         "object":"Wall"
        },
     "6":
        {
         "object":"Wall"
        },
     "7":
        {
         "object":"Wall"
        },
     "8":
        {
         "object":"Wall"
        },
     "9":
        {
         "object":"Wall"
        }
    },
 "tilepropertytypes":
    {
     "0":
        {
         "object":"string"
        },
     "1":
        {
         "object":"string"
        },
     "10":
        {
         "object":"string"
        },
     "11":
        {
         "object":"string"
        },
     "12":
        {
         "object":"string"
        },
     "13":
        {
         "object":"string"
        },
     "14":
        {
         "object":"string"
        },
     "15":
        {
         "object":"string"
        },
     "16":
        {
         "object":"string"
        },
     "17":
        {
         "object":"string"
        },
     "18":
        {
         "object":"string"
        },
     "19":
        {
         "object":"string"
        },
     "2":
        {
         "object":"string"
        },
     "20":
        {
         "object":"string"
        },
     "21":
        {
         "object":"string"
        },
     "22":
        {
         "object":"string"
        },
     "23":
        {
         "object":"string"
        },
     "24":
        {
         "object":"string"
        },
     "25":
        {
         "object":"string"
        },
     "26":
        {
         "object":"string"
        },
     "27":
        {
         "object":"string"
        },
     "28":
        {
         "object":"string"
        },
     "29":
        {
         "object":"string"
        },
     "3":
        {
         "object":"string"
        },
     "30":
        {
         "object":"string"
        },
     "31":
        {
         "object":"string"
        },
     "32":
        {
         "object":"string"
        },
     "36":
        {
         "object":"string"
        },
     "37":
        {
         "object":"string"
        },
     "38":
        {
         "object":"string"
        },
     "39":
        {
         "object":"string"
        },
     "4":
        {
         "object":"string"
        },
     "40":
        {
         "object":"string"
        },
     "41":
        {
         "object":"string"
        },
     "45":
        {
         "object":"string"
        },
     "46":
        {
         "object":"string"
        },
     "47":
        {
         "object":"string"
        },
     "48":
        {
         "object":"string"
        },
     "49":
        {
         "object":"string"
        },
     "5":
        {
         "object":"string"
        },
     "50":
        {
         "object":"string"
        },
     "6":
        {
         "object":"string"
        },
     "7":
        {
         "object":"string"
        },
     "8":
        {
         "object":"string"
        },
     "9":
        {
         "object":"string"
        }
    },
 "tilewidth":50,
 "transparentcolor":"#ff00ff",
 "type":"tileset"
}